"matching_type";"comptoir_ID";"comptoir_NAME";"cnll_NAME";"cnll_ID";"cnll_SILL_ID";"cnll_RELATIVE_URL";"cnll_URL";
"CNLL-html_SOFTWARE-NAME";"29";"Alfresco";"Alfresco";"523";"";"/solutions/523";"https://annuaire.cnll.fr/solutions/523";
"CNLL-html_SOFTWARE-NAME";"526";"Angular";"Angular";"391";"274";"/solutions/391";"https://annuaire.cnll.fr/solutions/391";
"CNLL-json_SILL-ID";"212";"Apache";"Apache HTTP Server";"141";"6";"/solutions/141";"https://annuaire.cnll.fr/solutions/141";
"CNLL-json_SILL-ID";"176";"Maven";"Apache Maven";"395";"8";"/solutions/395";"https://annuaire.cnll.fr/solutions/395";
"CNLL-json_SILL-ID";"204";"Apache SolR";"Apache Solr";"62";"9";"/solutions/62";"https://annuaire.cnll.fr/solutions/62";
"CNLL-html_SOFTWARE-NAME";"482";"Apache Subversion";"Apache Subversion";"314";"";"/solutions/314";"https://annuaire.cnll.fr/solutions/314";
"CNLL-json_SILL-ID";"205";"Tomcat";"Apache Tomcat";"397";"10";"/solutions/397";"https://annuaire.cnll.fr/solutions/397";
"CNLL-html_SOFTWARE-NAME";"452";"ASTERISK";"Asterisk";"527";"";"/solutions/527";"https://annuaire.cnll.fr/solutions/527";
"CNLL-json_SILL-ID";"132";"Blender";"Blender";"15";"258";"/solutions/15";"https://annuaire.cnll.fr/solutions/15";
"CNLL-html_SOFTWARE-NAME";"25";"BlueMind";"Bluemind";"100";"";"/solutions/100";"https://annuaire.cnll.fr/solutions/100";
"CNLL-json_SILL-ID";"239";"CentOS";"CentOS";"79";"19";"/solutions/79";"https://annuaire.cnll.fr/solutions/79";
"CNLL-json_SILL-ID";"193";"Chromium";"Chromium";"414";"22";"/solutions/414";"https://annuaire.cnll.fr/solutions/414";
"CNLL-json_SILL-ID";"241";"Debian";"Debian";"322";"32";"/solutions/322";"https://annuaire.cnll.fr/solutions/322";
"CNLL-json_SILL-ID";"218";"Docker";"Docker";"420";"34";"/solutions/420";"https://annuaire.cnll.fr/solutions/420";
"CNLL-json_SILL-ID";"264";"Drupal";"Drupal";"394";"36";"/solutions/394";"https://annuaire.cnll.fr/solutions/394";
"CNLL-html_SOFTWARE-NAME";"170";"Eclipse";"Eclipse";"96";"";"/solutions/96";"https://annuaire.cnll.fr/solutions/96";
"CNLL-html_SOFTWARE-NAME";"597";"Fedora";"Fedora";"428";"";"/solutions/428";"https://annuaire.cnll.fr/solutions/428";
"CNLL-json_SILL-ID";"530";"Flask";"Flask";"113";"272";"/solutions/113";"https://annuaire.cnll.fr/solutions/113";
"CNLL-json_SILL-ID";"67";"GIMP";"GIMP";"431";"51";"/solutions/431";"https://annuaire.cnll.fr/solutions/431";
"CNLL-json_SILL-ID";"175";"Git";"Git";"56";"52";"/solutions/56";"https://annuaire.cnll.fr/solutions/56";
"CNLL-html_SOFTWARE-NAME";"617";"GNOME";"GNOME";"433";"";"/solutions/433";"https://annuaire.cnll.fr/solutions/433";
"CNLL-html_SOFTWARE-NAME";"259";"Joomla!";"Joomla!";"344";"";"/solutions/344";"https://annuaire.cnll.fr/solutions/344";
"CNLL-json_SILL-ID";"219";"Kubernetes";"Kubernetes";"450";"75";"/solutions/450";"https://annuaire.cnll.fr/solutions/450";
"CNLL-json_SILL-ID";"33";"LibreOffice";"LibreOffice";"284";"78";"/solutions/284";"https://annuaire.cnll.fr/solutions/284";
"CNLL-json_SILL-ID";"206";"MariaDB";"MariaDB";"80";"84";"/solutions/80";"https://annuaire.cnll.fr/solutions/80";
"CNLL-json_SILL-ID";"122";"MediaWiki";"MediaWiki";"177";"86";"/solutions/177";"https://annuaire.cnll.fr/solutions/177";
"CNLL-html_SOFTWARE-NAME";"208";"MongoDB";"MongoDB";"459";"88";"/solutions/459";"https://annuaire.cnll.fr/solutions/459";
"CNLL-json_SILL-ID";"250";"Moodle";"Moodle";"462";"208";"/solutions/462";"https://annuaire.cnll.fr/solutions/462";
"CNLL-json_SILL-ID";"117";"NextCloud";"Nextcloud";"466";"93";"/solutions/466";"https://annuaire.cnll.fr/solutions/466";
"CNLL-json_SILL-ID";"213";"Nginx";"Nginx";"467";"95";"/solutions/467";"https://annuaire.cnll.fr/solutions/467";
"CNLL-html_SOFTWARE-NAME";"549";"OCaml";"OCaml";"210";"";"/solutions/210";"https://annuaire.cnll.fr/solutions/210";
"CNLL-html_SOFTWARE-NAME";"164";"Odoo";"odoo";"61";"";"/solutions/61";"https://annuaire.cnll.fr/solutions/61";
"CNLL-html_SOFTWARE-NAME";"116";"OpenBSD";"OpenBSD";"471";"";"/solutions/471";"https://annuaire.cnll.fr/solutions/471";
"CNLL-json_SILL-ID";"98";"OPENLDAP";"OpenLDAP";"366";"105";"/solutions/366";"https://annuaire.cnll.fr/solutions/366";
"CNLL-json_SILL-ID";"221";"OpenStack";"OpenStack";"553";"108";"/solutions/553";"https://annuaire.cnll.fr/solutions/553";
"CNLL-json_SILL-ID";"140";"PeerTube";"PeerTube";"482";"197";"/solutions/482";"https://annuaire.cnll.fr/solutions/482";
"CNLL-json_SILL-ID";"216";"PostFix";"Postfix";"486";"116";"/solutions/486";"https://annuaire.cnll.fr/solutions/486";
"CNLL-json_SILL-ID";"207";"PostGIS";"PostGIS";"560";"117";"/solutions/560";"https://annuaire.cnll.fr/solutions/560";
"CNLL-json_SILL-ID";"123";"PostgreSQL";"PostgreSQL";"155";"118";"/solutions/155";"https://annuaire.cnll.fr/solutions/155";
"CNLL-json_SILL-ID";"489";"Python";"Python";"2";"294";"/solutions/2";"https://annuaire.cnll.fr/solutions/2";
"CNLL-json_SILL-ID";"60";"QGIS";"QGIS";"157";"120";"/solutions/157";"https://annuaire.cnll.fr/solutions/157";
"CNLL-json_SILL-ID";"197";"Redmine";"Redmine";"381";"122";"/solutions/381";"https://annuaire.cnll.fr/solutions/381";
"CNLL-json_SILL-ID";"227";"Rudder";"Rudder";"163";"164";"/solutions/163";"https://annuaire.cnll.fr/solutions/163";
"CNLL-json_SILL-ID";"142";"samba";"Samba";"506";"127";"/solutions/506";"https://annuaire.cnll.fr/solutions/506";
"CNLL-json_SILL-ID";"76";"Scribus";"Scribus";"4";"128";"/solutions/4";"https://annuaire.cnll.fr/solutions/4";
"CNLL-json_SILL-ID";"36";"SPIP";"SPIP";"502";"211";"/solutions/502";"https://annuaire.cnll.fr/solutions/502";
"CNLL-json_SILL-ID";"279";"Symfony";"Symfony";"193";"247";"/solutions/193";"https://annuaire.cnll.fr/solutions/193";
"CNLL-json_SILL-ID";"517";"Vim";"Vim";"374";"283";"/solutions/374";"https://annuaire.cnll.fr/solutions/374";
"CNLL-json_SILL-ID";"38";"WordPress";"WordPress";"572";"162";"/solutions/572";"https://annuaire.cnll.fr/solutions/572";
"CNLL-json_SILL-ID";"22";"XiVO";"XiVO";"576";"276";"/solutions/576";"https://annuaire.cnll.fr/solutions/576";
"CNLL-json_SILL-ID";"11";"XWiki";"XWiki";"3";"214";"/solutions/3";"https://annuaire.cnll.fr/solutions/3";
"CNLL-json_SILL-ID";"110";"Zimbra";"Zimbra";"521";"202";"/solutions/521";"https://annuaire.cnll.fr/solutions/521";
