"comptoir_ID";"comptoir_NAME";"comptoir_SILL_ID";"comptoir_WIKIDATA_ID";
"2";"Pastell";"";"";
"3";"Asalae";"";"";
"4";"i-Parapheur";"333";"Q114244260";
"5";"S²LOW";"";"";
"9";"Asqatasun";"12";"Q24026504";
"10";"LUTECE";"";"";
"11";"XWiki";"214";"Q526699";
"12";"Xemelios";"";"";
"13";"Chouette2";"";"";
"14";"OpenRecensement";"";"";
"15";"idelibre";"";"";
"16";"WebRSA";"";"";
"17";"openCimetière";"";"";
"18";"openScrutin";"";"";
"19";"openMairie";"";"";
"20";"eXo Platform";"346";"Q42417120";
"22";"XiVO";"276";"Q3570950";
"23";"openADS";"";"";
"24";"web-delib";"";"";
"25";"BlueMind";"315";"Q2907192";
"26";"Publik";"230";"Q110094718";
"27";"Authentik";"";"";
"29";"Alfresco";"";"";
"31";"OBM";"";"";
"32";"webGFC";"";"";
"33";"LibreOffice";"78";"Q10135";
"35";"GLPI";"54";"Q3104570";
"36";"SPIP";"211";"Q1536426";
"38";"WordPress";"162";"Q13166";
"40";"OpenResultat";"";"";
"41";"OpenReglement";"";"";
"42";"LimeSurvey";"80";"Q1514978";
"43";"GRR - Gestion Réservation de Ressources";"";"";
"44";"OpenBiblio";"";"";
"45";"Jorani";"";"";
"46";"FusionDirectory";"206";"Q96679195";
"47";"Dolibarr ERP CRM";"342";"Q2076540";
"48";"Rubedo";"";"";
"49";"Maarch Courrier";"";"";
"50";"KeePass";"72";"Q762660";
"51";"VeraCrypt";"154";"Q19911889";
"52";"FreeFileSync";"47";"Q18150468";
"53";"UltraCopier";"";"";
"54";"Métamorphose";"";"";
"55";"Notepad++";"97";"Q2033";
"56";"Greenshot";"58";"Q1544791";
"57";"Sumatra PDF";"139";"Q479808";
"58";"BlueGriffon";"18";"Q885580";
"59";"ProjectLibre";"119";"Q580985";
"60";"QGIS";"120";"Q1329181";
"61";"Freeplane";"48";"Q3028675";
"62";"VLC";"156";"Q171477";
"63";"NVDA";"99";"Q1116614";
"64";"FileZilla";"43";"Q300662";
"65";"Jitsi";"67";"Q87849488";
"66";"Dia Diagram Editor";"";"";
"67";"GIMP";"51";"Q8038";
"68";"Inkscape";"61";"Q8041";
"69";"Audacity";"";"";
"70";"Avidemux";"15";"Q790931";
"71";"Ultradefrag";"";"";
"72";"7-zip";"1";"Q215051";
"73";"Clonezilla";"";"";
"74";"DVDstyler";"37";"Q4117800";
"75";"FusionForge";"";"";
"76";"Scribus";"128";"Q8295";
"77";"MultiDiff";"90";"";
"78";"Ooo.HG";"";"";
"79";"Grammalecte";"57";"Q17629243";
"80";"Thunderbird";"147";"Q483604";
"81";"DBAN";"";"";
"82";"Firefox ESR";"89";"Q698";
"83";"OCS Inventory";"101";"Q1135744";
"84";"GLPI Plugin FusionInventory";"49";"";
"85";"eGroupware";"";"";
"86";"Nuxeo";"";"";
"87";"TYPO3";"203";"Q618512";
"88";"OCS Inventory NG Agent pour Windows";"4";"";
"89";"MSofficeKey";"";"";
"90";"OCS Inventory NG Plugins : WinServices";"";"";
"91";"GLPI Plugin:OCS Inventory Ng";"102";"";
"92";"GLPI Plugin:Data Injection";"29";"";
"93";"GLPI Plugin:AdditionalAlerts";"3";"";
"94";"GLPI Plugin:Uninstall";"151";"";
"95";"GLPI Plugin Behaviors";"17";"";
"96";"GLPI Plugin:Timelineticket";"148";"";
"97";"OPSI";"";"";
"98";"OPENLDAP";"105";"Q682918";
"99";"Argonaut";"";"";
"100";"LDAP Synchronisation connector";"262";"";
"101";"LemonLDAP NG";"77";"Q3229380";
"102";"LDAP Tool Box Self Service Password";"";"";
"103";"LDAP Tool Box White Pages";"";"";
"104";"Magnolia CMS";"";"";
"105";"Pentaho";"212";"Q644841";
"106";"web-DPO";"";"";
"107";"Contrast-Finder";"";"";
"108";"Zabbix";"353";"Q136722";
"109";"Apache JMeter™";"7";"Q616885";
"110";"Zimbra";"202";"Q203485";
"111";"Noethys";"";"";
"112";"Roundcube";"68";"Q1769269";
"113";"Proxmox Virtual Environment PVE";"178";"Q344376";
"114";"Owncloud";"";"";
"115";"Départements & Notaires";"";"";
"116";"OpenBSD";"";"";
"117";"NextCloud";"93";"Q25874683";
"118";"Gadael - Gestion des congés";"";"";
"119";"Claws-mail";"";"";
"120";"Xournal";"";"";
"121";"Zim";"330";"Q203374";
"122";"MediaWiki";"86";"Q83";
"123";"PostgreSQL";"118";"Q192490";
"124";"Geotrek";"289";"Q116819111";
"125";"GeoNature";"288";"Q109038131";
"126";"PfSense";"391";"Q310946";
"127";"Nodea Software";"";"";
"128";"Ametys";"";"";
"129";"PMB";"386";"";
"130";"LOCAL TRUST MPE Webmarché";"";"";
"131";"Maarch RM";"";"";
"132";"Blender";"258";"Q173136";
"133";"PIA";"";"";
"134";"J-Doc";"";"";
"135";"ProtonClassicSuite";"";"";
"136";"Démarches simplifiées";"205";"Q93597458";
"137";"DataFair";"";"";
"138";"FOG Project";"241";"Q111132714";
"139";"SOGo";"171";"Q1523357";
"140";"PeerTube";"197";"Q50938515";
"141";"LibreBooking";"";"";
"142";"samba";"127";"Q1830735";
"143";"Tryton";"";"";
"144";"Talend";"";"";
"145";"JasperReports";"";"";
"146";"CKAN";"";"";
"147";"Pydio";"";"";
"148";"Kanboard";"331";"Q106199750";
"149";"SMPlayer";"";"";
"150";"OpenShot";"";"";
"151";"ScadaBR";"";"";
"152";"ZoneMinder";"";"";
"153";"Module Forum et Consultations Publiques";"";"";
"154";"Module Rendez-Vous";"";"";
"155";"zmNinja";"";"";
"156";"OX Digital Signage";"";"";
"157";"Coova Chilli";"";"";
"158";"OpenBoard";"";"";
"159";"Squid";"138";"Q841783";
"160";"SquidGuard";"";"";
"161";"Squid Analyzer";"";"";
"162";"ThingsBoard";"";"";
"163";"ATOM";"";"";
"164";"Odoo";"";"";
"169";"PDFSam basic";"112";"Q3898451";
"170";"Eclipse";"38";"Q82268";
"171";"VSCodium";"155";"Q111967621";
"172";"Spring boot";"135";"";
"173";"OpenJDK";"104";"Q1461054";
"174";"Mantis Bug Tracker";"83";"Q1421571";
"175";"Git";"52";"Q186055";
"176";"Maven";"8";"Q139941";
"177";"Yarn";"163";"Q28975591";
"178";"Nexus";"94";"";
"179";"NPM";"98";"Q7067518";
"180";"Pencil";"";"";
"181";"SonarQube";"133";"Q541691";
"182";"JaCoCo";"63";"Q6109486";
"183";"JUnit";"69";"Q847675";
"184";"Fitnesse";"";"";
"185";"DBfit";"";"";
"186";"SoapUI";"132";"Q2296314";
"187";"Jenkins";"66";"Q7491312";
"188";"Selenium Server";"130";"";
"189";"Squash AUTOM";"302";"Q110620332";
"190";"Squash TM";"137";"";
"191";"TestLink";"146";"Q248384";
"192";"Jailer";"64";"";
"193";"Chromium";"22";"Q48524";
"194";"H2";"59";"Q1562670";
"195";"JavaMelody";"65";"";
"196";"Talend Open Studio";"144";"Q17097860";
"197";"Redmine";"122";"Q1149365";
"198";"Gitlab";"53";"Q16639197";
"199";"phpBB";"325";"";
"200";"RocketChat";"124";"Q24050001";
"201";"Elastic Search";"39";"Q3050461";
"202";"Kibana";"74";"Q21156460";
"203";"LogStash";"82";"Q17620247";
"204";"Apache SolR";"9";"Q2858103";
"205";"Tomcat";"10";"Q507430";
"206";"MariaDB";"84";"Q787177";
"207";"PostGIS";"117";"Q1569955";
"208";"MongoDB";"";"";
"209";"Nagios";"";"";
"210";"Centreon";"20";"Q2946121";
"211";"ClamAV";"23";"Q852000";
"212";"Apache";"6";"Q11354";
"213";"Nginx";"95";"Q306144";
"214";"Varnish";"152";"Q1602447";
"215";"Cyrus";"";"";
"216";"PostFix";"116";"Q1121334";
"217";"CUPS";"28";"Q868171";
"218";"Docker";"34";"Q15206305";
"219";"Kubernetes";"75";"Q22661306";
"220";"KVM";"76";"Q377539";
"221";"OpenStack";"108";"Q1470293";
"222";"OpenNebula CE";"107";"Q1164484";
"223";"Ceph";"21";"Q4035967";
"224";"SaltStack";"126";"Q7405800";
"225";"Ansible";"5";"Q2852503";
"226";"HashiCorp Consul";"26";"Q28709844";
"227";"Rudder";"164";"Q16673801";
"228";"Packer";"110";"";
"229";"RunDeck";"125";"Q56317793";
"230";"Swarm";"140";"Q7653883";
"231";"Waarp";"";"";
"232";"PHP-FPM";"";"";
"233";"CAS Server";"";"";
"234";"EOLE Amon";"40";"";
"235";"Corosync";"27";"";
"236";"Pacemaker";"109";"";
"237";"HAProxy";"60";"Q5628948";
"238";"NodeJS";"96";"Q756100";
"239";"CentOS";"19";"Q207542";
"240";"EOLE Ubuntu";"41";"Q3046024";
"241";"Debian";"32";"Q7715973";
"242";"Syslog-ng";"143";"Q467865";
"243";"BareOS";"16";"Q25387280";
"244";"DIGIRISK";"292";"Q112299414";
"245";"editInteractiveSVG";"";"";
"248";"ALCASAR";"";"";
"249";"PrimTux";"231";"Q27024590";
"250";"Moodle";"208";"Q190434";
"251";"Opigno";"";"";
"252";"Chamilo";"216";"Q423221";
"253";"SambaÉdu";"232";"Q16675432";
"254";"ARTICA Proxy";"";"";
"255";"Puppet";"";"";
"258";"EmonCMS";"";"";
"259";"Joomla!";"435";"Q13167";
"260";"Wekan";"161";"Q50558592";
"261";"WAPT Community";"158";"Q50829216";
"262";"phpIPAM";"383";"";
"263";"Graylog";"";"";
"264";"Drupal";"36";"Q170855";
"265";"Etherpad";"";"";
"266";"Studs";"";"";
"267";"Lufi";"";"";
"268";"Decidim";"234";"Q20105575";
"273";"Tracim";"213";"";
"275";"LibreOffice des écoles";"";"";
"276";"openElec";"";"";
"277";"openDebitDeBoisson";"";"";
"278";"openARIA";"";"";
"279";"Symfony";"247";"Q1322933";
"280";"FreeIPA";"";"";
"281";"Sympa";"142";"Q1850168";
"282";"Discourse";"33";"Q15054354";
"283";"Mastodon";"85";"Q27986619";
"284";"Framadate";"45";"";
"285";"OBS Studio";"100";"Q21707789";
"286";"K-9 Mail";"70";"Q14565723";
"287";"LireCouleur";"81";"";
"288";"uBlock Origin";"149";"Q19881587";
"289";"VRT Network Equipment";"157";"";
"290";"OpenDocument Reader";"103";"";
"291";"MuPDF";"91";"Q6930567";
"292";"uMap";"150";"";
"293";"KeeFox";"71";"Q61694243";
"294";"LibreOffice Online";"79";"Q30584920";
"295";"GLPI Plugin:WebServices";"160";"";
"296";"GLPI Plugin:Escalation";"42";"";
"297";"GLPI Plugin:https:Geststock";"";"";
"298";"GLPI Plugin:Reports";"123";"";
"299";"GLPI Plugin:PDF";"111";"";
"300";"draw.io";"35";"Q59339175";
"301";"KEYCLOAK";"73";"Q42916195";
"302";"Shinken";"";"";
"303";"CockroachDB";"";"";
"304";"Acceleo";"2";"Q2822666";
"305";"Tanaguru";"145";"";
"306";"CodeceptJS";"25";"";
"307";"SonarQube Plugin:FindBugs";"134";"";
"308";"SonarQube Plugin:CheckStyle";"165";"";
"309";"SonarQube Plugin:PMD";"166";"";
"310";"ARX Data Anonymization Tool";"11";"";
"311";"Selenium IDE";"";"";
"312";"Vault";"";"";
"313";"E-Collectivités";"";"";
"315";"Crust";"";"";
"317";"CONSUL";"";"";
"318";"Afrikalan";"";"";
"319";"Information System Designer";"62";"Q112578937";
"320";"Freecad";"337";"Q251322";
"323";"Solution logicielle Vitam";"194";"Q65130365";
"324";"Emmabuntüs";"";"";
"325";"Tuleap";"221";"Q3541946";
"327";"Nim language";"";"";
"328";"LXD";"";"";
"330";"Lightbulb";"";"";
"331";"Bokeh";"";"";
"332";"JOPLIN";"312";"Q97175797";
"333";"OPEN JARDIN";"";"";
"334";"geOrchestra";"286";"Q112611351";
"335";"GestSup";"";"";
"336";"OpenSVC";"218";"Q100588070";
"337";"zendto";"";"";
"340";"Ozwillo";"";"";
"341";"Loomio";"";"";
"342";"CiviCRM";"";"";
"343";"TeamWorks - Gestion d'équipes";"";"";
"345";"MedShakeEHR";"";"";
"347";"Ishtar";"";"";
"348";"Koha";"236";"Q1114959";
"349";"Element.io";"237";"Q47004029";
"350";"Matrix";"";"";
"351";"NAPS2";"92";"";
"352";"Chill";"";"";
"354";"Madis";"339";"";
"355";"Zammad";"172";"Q71389626";
"356";"Jekyll";"173";"Q17067385";
"357";"Cachet";"175";"";
"358";"Matomo";"176";"Q34162";
"359";"Postfix Admin";"177";"";
"361";"Yunohost";"179";"Q15971793";
"362";"CodiMD";"";"";
"363";"Git-Crypt";"181";"";
"364";"DBeaver";"319";"Q28956992";
"365";"Redis";"184";"Q2136322";
"366";"RStudio";"182";"Q4798119";
"367";"SecureFlag Community Edition";"183";"";
"368";"Archifiltre";"185";"Q77064547";
"369";"Krita";"";"";
"370";"Mint - Linux Mint";"";"";
"371";"Olive";"";"";
"372";"Piwigo";"388";"Q1511947";
"373";"Grafana";"188";"Q43399271";
"374";"Prometheus";"187";"";
"375";"ProjeQtOr";"192";"Q17501773";
"376";"OpenIO SDS";"189";"Q30348631";
"377";"Pulse";"191";"";
"378";"Metabase";"";"";
"379";"OpenShot Video Editor";"193";"Q769346";
"380";"Opale";"195";"Q91312803";
"381";"Open-Capture";"341";"";
"382";"DirectMairie";"";"";
"383";"PARSEC";"";"";
"384";"BigBlueButton";"196";"Q4904858";
"385";"Exodus-Privacy (standalone)";"199";"Q60348651";
"386";"Rancher";"198";"";
"387";"OpenFisca";"200";"Q64777688";
"388";"SDK Géoportail";"201";"";
"389";"Rdiff-backup";"";"";
"390";"JOSM";"207";"Q12877";
"391";"DomiFa";"";"";
"392";"Kdenlive";"306";"Q572226";
"395";"ONLYOFFICE Workspace";"";"";
"396";"Open edX";"209";"Q2106448";
"397";"Esup-Pod";"210";"Q109851936";
"398";"Colour Contrast Analyser";"204";"";
"399";"GeoMapFish";"";"";
"400";"Pycharm CE";"215";"Q50557308";
"401";"Axelor";"";"";
"403";"iTop";"264";"";
"404";"Gravitee CE";"217";"Q97819945";
"406";"Vulture Project";"265";"";
"407";"CMS.Eolas";"";"";
"408";"Mattermost";"291";"Q55478510";
"409";"openDPO";"";"";
"410";"Thorium reader";"";"";
"411";"Collabora Online";"";"";
"412";"Calibre";"";"";
"413";"RaspiSMS";"";"";
"414";"RosarioSIS";"";"";
"415";"French Automation";"";"";
"416";"XCP-ng";"235";"Q110944501";
"417";"Xen Orchestra";"";"";
"418";"Apache Superset";"219";"Q68705831";
"419";"uPortal";"220";"Q3547301";
"421";"ONLYOFFICE Docs";"296";"Q1582500";
"422";"HedgeDoc";"223";"";
"423";"FileSender";"263";"";
"424";"Dash";"222";"Q106081011";
"425";"Domvil2";"";"";
"426";"MENTDB";"";"";
"427";"GoFAST Digital Workplace";"";"";
"429";"FreePascal";"225";"";
"430";"Lazarus IDE";"224";"";
"431";"MurExpo";"226";"Q108370859";
"433";"Pétrolette";"";"";
"434";"OpenNMS";"";"";
"435";"LDAP Tool Box Service Desk";"";"";
"436";"SHOTCUT";"363";"";
"438";"DoliSCAN";"";"";
"439";"Phraseanet";"";"";
"440";"Dolibackup";"";"";
"443";"Cozy Cloud";"";"";
"444";"Paheko";"";"";
"445";"Tracemob";"";"";
"446";"Open Mobility Indicators";"";"";
"447";"GCompris";"290";"Q1147042";
"449";"Kuzzle IoT";"";"";
"450";"Proxy EPN";"";"";
"451";"Apache OFBiz";"";"";
"452";"ASTERISK";"";"";
"453";"ESOPE";"";"";
"454";"Mviewer";"287";"Q112610504";
"455";"Rocky Linux";"385";"Q104102686";
"458";"Keycloakify";"227";"Q107693197";
"459";"Chimithèque";"228";"";
"460";"Fpart";"229";"Q109606717";
"461";"Onyxia";"233";"Q110492908";
"462";"ownCloud Edition Communauté";"";"";
"464";"R2Devops";"";"";
"465";"PubliS2low";"";"";
"466";"Oméka";"";"";
"467";"Dokiel";"238";"Q112063447";
"468";"Topaze";"239";"Q112062753";
"469";"Linea21";"";"";
"470";"Composer";"248";"Q15252222";
"471";"PHPUnit";"249";"Q1663673";
"472";"ITSM NG";"";"";
"473";"KiCad";"259";"Q942363";
"475";"Step-ca";"";"";
"476";"Dogtag";"";"";
"478";"Lizmap";"284";"Q112208571";
"479";"EJBCA";"";"";
"480";"Chamilo Studio";"";"";
"481";"LibreNMS";"";"";
"482";"Apache Subversion";"";"";
"483";"Pristy Espaces";"";"";
"488";"QWC";"";"";
"489";"Python";"294";"Q28865";
"490";"Zeste de Savoir - à supprimer";"";"";
"491";"WeasyPrint";"";"";
"492";"LinTO";"";"";
"493";"Thelia";"";"";
"494";"MEM Courrier";"340";"";
"495";"Publicodes";"242";"Q111974596";
"496";"Zotero";"243";"Q226915";
"497";"Dovecot";"244";"Q742820";
"498";"UData";"245";"Q99493159";
"499";"JabRef";"246";"Q1676802";
"500";"Beekeeper Studio (Community Edition)";"250";"";
"501";"ILIAS";"251";"Q1623223";
"502";"XSane";"253";"Q4053335";
"503";"MkDocs";"254";"Q102565362";
"504";"GDL - GNU Data Language";"255";"Q929932";
"505";"Groff";"309";"Q288684";
"506";"Spectacle";"307";"Q48892923";
"507";"KDE Plasma 5";"308";"Q17363870";
"508";"Okular";"";"";
"509";"Kate";"304";"Q261933";
"510";"OpenTestFactory";"303";"Q110520668";
"511";"VisiData";"299";"Q61101023";
"512";"Bitwarden";"298";"Q56319818";
"513";"Homebrew";"297";"Q11223506";
"514";"Clojure";"295";"Q51798";
"515";"AtoM - Access to Memory";"293";"Q73673993";
"516";"GitLanding";"285";"Q112595096";
"517";"Vim";"283";"Q131382";
"518";"TDP";"281";"Q112194385";
"519";"Deno";"280";"Q65070939";
"520";"R";"278";"Q206904";
"521";"Dokku";"256";"Q112073283";
"522";"PlantUML";"277";"Q18346546";
"523";"SuiteCRM";"257";"Q16294867";
"524";"MinIO";"275";"Q28956397";
"525";"GanttProject";"260";"Q1493695";
"526";"Angular";"320";"Q28925578";
"527";"Apache Atlas";"266";"Q28915124";
"528";"Podman";"268";"Q70876440";
"529";"Cherrytree";"273";"Q105029197";
"530";"Flask";"272";"Q289281";
"531";"G'MIC";"271";"Q21041255";
"533";"Kleopatra";"310";"";
"534";"Raspberry Pi OS";"300";"Q890474";
"535";"KiTTY";"279";"";
"536";"ART";"270";"Q112079993";
"537";"Bonita";"267";"Q1076128";
"538";"SDKMAN!";"261";"";
"539";"openDCIM";"252";"";
"540";"Taiga";"282";"Q22909254";
"541";"Chocolatey";"311";"Q16988239";
"542";"LaTeX";"314";"Q5310";
"543";"Assistant RGAA";"";"";
"544";"Jupyter Notebook";"316";"Q105099901";
"545";"JupyterLab";"317";"Q99439725";
"546";"ImageJ";"313";"";
"547";"GNU Octave";"321";"Q223679";
"548";"GNU TeXmacs";"322";"Q1464634";
"549";"OCaml";"323";"Q212587";
"550";"FreeFEM";"324";"Q5499643";
"551";"Sygefor";"328";"Q113775006";
"552";"Arduino IDE";"326";"Q55080330";
"553";"ShredOS";"327";"Q115679750";
"557";"Trivy";"329";"";
"558";"Sugarizer";"332";"Q114097965";
"559";"WinSCP";"392";"Q1160381";
"560";"RustDesk";"371";"";
"561";"Cal.com";"335";"";
"562";"GNU Emacs";"174";"Q1252773";
"563";"Prodige";"343";"";
"564";"Duplicati";"338";"Q1266534";
"565";"Osuny";"336";"Q114333380";
"566";"Baserow";"";"";
"567";"BIM Ciqo";"";"";
"568";"SO Planning";"";"";
"569";"OpenProject";"351";"Q14468709";
"570";"DashLord";"344";"Q115326091";
"571";"Scaphandre";"";"";
"572";"Goupile";"403";"Q120131804";
"573";"Sigle";"";"";
"574";"Canaille";"";"";
"575";"PacketFence";"345";"Q3360235";
"576";"CodeIgniter";"348";"Q339829";
"577";"PLANNO";"";"";
"578";"neovim";"352";"Q28975246";
"579";"Twake";"";"";
"580";"LinShare";"";"";
"581";"Madis Cyber";"";"";
"583";"Datami";"";"";
"584";"Pristy Actes";"";"";
"585";"BackupPC";"390";"Q798540";
"586";"Psono";"";"";
"587";"Porteus Kiosk";"";"";
"588";"Apache ECharts";"";"";
"589";"Planplan";"";"";
"590";"Zero Logement Vacant";"";"";
"591";"DynFi Firewall";"";"";
"592";"DAVIS";"";"";
"593";"DAVGIS";"";"";
"594";"ONLYOFFICE DocSpace";"";"";
"596";"Pretalx";"364";"";
"597";"Fedora";"";"";
"598";"diaspora";"";"";
"599";"AlmaLinux";"368";"Q106601457";
"600";"Uptime Kuma";"365";"Q118611125";
"601";"Proxmox Backup Server";"366";"Q104882439";
"602";"BookStack";"367";"Q107122654";
"603";"Apache Guacamole";"416";"";
"604";"UpdatEngine-NG";"376";"";
"605";"Gitea";"369";"Q28714270";
"606";"Hugo";"";"";
"607";"Ventoy";"370";"Q106129644";
"609";"Passbolt Community Edition";"375";"";
"610";"Crème CRM";"";"";
"611";"Nginx Proxy Manager";"407";"";
"612";"rsyslog";"387";"Q995115";
"613";"HeidiSQL";"";"";
"614";"JSON-NTV";"";"";
"616";"Remmina";"389";"Q82148";
"617";"GNOME";"393";"Q44316";
"618";"GNU Nano";"394";"Q306101";
"620";"mRemoteNG";"397";"";
"621";"Vagrant";"";"";
"622";"PuTTY";"400";"Q841685";
"623";"Seafile";"401";"Q12072480";
"624";"AgentJ";"";"";
"625";"GParted";"402";"Q843156";
"626";"MeshCentral";"";"";
"627";"EOLE Scribe";"";"";
"628";"EOLE Hâpy";"";"";
"629";"API Platform";"";"";
"630";"Esup-Signature";"350";"Q116160106";
"631";"Opnsense";"";"";
"632";"Proxmox Mail Gateway";"404";"Q108039788";
"633";"BunkerWeb";"434";"Q122929604";
"634";"Scribe - CEMEA";"408";"";
"635";"transfer.sh";"409";"";
"636";"Medulla";"";"";
"638";"Oro Commerce";"";"";
"639";"Grand Planning IAE-Paris";"";"";
"640";"PrestoFacto";"";"";
"641";"Camino";"";"";
"642";"Mercator";"";"";
"643";"Zextras Carbonio";"";"";
"644";"Wireshark";"420";"";
"645";"Logiciel à supprimer";"";"";
"646";"Logiciel à supprimer 2";"";"";
"647";"Ma carte";"424";"Q122584745";
"648";"DematBP";"";"";
"651";"HandBrake";"";"";
